digraph email {
        label="Email architecture TPA-RFC-44 long term plan\ntorproject.org, December 2022"
        labelloc=bottom
        node [shape=rectangle]

        // a user
        user [shape=triangle]

        // all other boxes that don't do anything special with email
        tpoboxes [label="other TPA hosts"]
        // hosts that manage and send their own email
        mailhosts [color="orange" label="mail hosts\ngitlab, RT, CiviCRM"]
        submission [color="orange"]
        // new machines
        relay [color="green" label="MTA"]
        mx [color="green"]
        mailbox [color="green" label="mailbox\nIMAP, webmail"]
        lists [color="green" label="lists\nschleuder, mm 3"]

        // external boxes
        dotdotdot [label="internet\nnon TPO mail hosts", shape=ellipse]
        // other hosts that currently masquerade as us
        masquerade [label="impersonators\nriseup, gmail, etc"]

        // all relations

        // mx receives email from everywhere and forwards it
        dotdotdot -> mx [label="SMTP"]
        mx -> { mailbox, mailhosts, lists, masquerade } [label="SMTP"]
        dotdotdot -> { mailhosts, lists } [label="SMTP"]
        // user interacts with those
        user -> { mailhosts, lists } [label="HTTP"]
        user -> submission [label="SMTP"]
        user -> mailbox [label="IMAP, HTTP"]
        // those all relay mail to the outside
        { submission, mailhosts, lists, relay } -> dotdotdot [label="SMTP"]
        // except those, who still go through the relay
        tpoboxes -> relay [label="SMTPS"]
        masquerade -> dotdotdot [style=tapered color=red label="SMTP, failing"]
}
